<?xml version="1.0" encoding="UTF-8" standalone="no"?>
<!-- Created with Inkscape (http://www.inkscape.org/) -->

<svg
   xmlns:osb="http://www.openswatchbook.org/uri/2009/osb"
   xmlns:dc="http://purl.org/dc/elements/1.1/"
   xmlns:cc="http://creativecommons.org/ns#"
   xmlns:rdf="http://www.w3.org/1999/02/22-rdf-syntax-ns#"
   xmlns:svg="http://www.w3.org/2000/svg"
   xmlns="http://www.w3.org/2000/svg"
   xmlns:sodipodi="http://sodipodi.sourceforge.net/DTD/sodipodi-0.dtd"
   xmlns:inkscape="http://www.inkscape.org/namespaces/inkscape"
   width="500"
   height="500"
   viewBox="0 0 132.29167 132.29167"
   version="1.1"
   id="svg8"
   inkscape:version="0.92.4 (5da689c313, 2019-01-14)"
   sodipodi:docname="perfil_steam.svg"
   inkscape:export-filename="/home/herik/Imagens/ilustracoes/perfil_steam.png"
   inkscape:export-xdpi="90"
   inkscape:export-ydpi="90">
  <defs
     id="defs2">
    <linearGradient
       id="linearGradient7625"
       osb:paint="gradient">
      <stop
         style="stop-color:#003178;stop-opacity:1;"
         offset="0"
         id="stop7621" />
      <stop
         style="stop-color:#003178;stop-opacity:0;"
         offset="1"
         id="stop7623" />
    </linearGradient>
  </defs>
  <sodipodi:namedview
     id="base"
     pagecolor="#ffffff"
     bordercolor="#666666"
     borderopacity="1.0"
     inkscape:pageopacity="0.0"
     inkscape:pageshadow="2"
     inkscape:zoom="0.98994949"
     inkscape:cx="126.03737"
     inkscape:cy="252.34016"
     inkscape:document-units="mm"
     inkscape:current-layer="layer1"
     showgrid="false"
     units="px"
     inkscape:showpageshadow="false" />
  <metadata
     id="metadata5">
    <rdf:RDF>
      <cc:Work
         rdf:about="">
        <dc:format>image/svg+xml</dc:format>
        <dc:type
           rdf:resource="http://purl.org/dc/dcmitype/StillImage" />
        <dc:title />
      </cc:Work>
    </rdf:RDF>
  </metadata>
  <g
     inkscape:label="Camada 1"
     inkscape:groupmode="layer"
     id="layer1"
     transform="translate(0,-164.70834)">
    <rect
       style="color:#000000;display:inline;overflow:visible;visibility:visible;opacity:1;fill:#ffffff;fill-opacity:0.99115044;fill-rule:evenodd;stroke:none;stroke-width:0.41089755;stroke-linecap:round;stroke-linejoin:round;stroke-miterlimit:4;stroke-dasharray:none;stroke-dashoffset:0;stroke-opacity:1;marker:none;enable-background:accumulate"
       id="rect8304"
       width="105.79828"
       height="108.27086"
       x="12.835815"
       y="175.17627" />
    <path
       style="fill:#0700a1;fill-opacity:1;stroke:none;stroke-width:0.26458332;stroke-miterlimit:4;stroke-dasharray:none;stroke-opacity:1"
       d="m -0.04202952,296.75971 c -0.1395,-0.36642 -0.19212,-30.19431 -0.11695,-66.2842 l 0.13669,-65.61798 H 66.127 132.27629 v 66.14929 66.1493 l -66.032338,0.13492 c -52.545912,0.10735 -66.08414152,-0.001 -66.28598152,-0.53133 z M 34.25028,275.37202 c 0.21074,-0.58446 0.0373,-2.44075 -0.38556,-4.12511 -0.71385,-2.84389 -0.69724,-3.1852 0.23285,-4.78188 0.55085,-0.94566 1.94806,-2.2436 3.1049,-2.88429 6.10522,-3.38124 20.5477,-2.57205 29.814571,1.67046 l 2.84494,1.30247 4.774004,-7.13299 c 2.625705,-3.92315 4.774014,-7.48385 4.774014,-7.91265 0,-1.27371 -0.855733,-1.42034 -1.85368,-0.31762 -1.471588,1.62609 -5.5189,2.92219 -9.038381,2.89445 -5.427361,-0.0429 -13.611028,-0.84274 -13.442898,-1.31401 0.31238,-0.87551 6.790062,-5.74626 9.958769,-7.48827 l 3.218477,-1.76936 v -5.45622 -5.45622 h 7.704127 7.704133 v 13.81432 13.81431 h 1.3283 1.3283 v -13.58974 -13.58973 l 2.523764,-3.66932 2.523774,-3.66933 0.270571,15.79793 c 0.234045,13.66542 0.399221,16.08482 1.223648,17.92321 1.124297,2.50705 3.21422,4.82668 5.356303,5.94499 l 1.537324,0.8026 4.82343,-4.82344 c 3.85169,-3.85168 4.68999,-4.95687 4.1611,-5.48577 -0.5241,-0.52408 -0.87986,-0.52648 -1.70451,-0.0114 -0.57319,0.35796 -1.39564,0.65084 -1.82766,0.65084 -1.98402,0 -2.14623,-1.72906 -2.31787,-24.70636 -0.0917,-12.27349 -0.0215,-23.30311 0.1559,-24.51027 0.17742,-1.20717 1.15612,-3.57907 2.17488,-5.27089 2.22486,-3.69474 1.77691,-4.8608 -1.04149,-2.7111 -1.01678,0.77552 -2.1304,1.41005 -2.47473,1.41005 -0.34433,0 -2.928201,-1.59397 -5.741945,-3.54214 -2.813754,-1.94817 -5.368854,-3.54213 -5.678002,-3.54213 -0.309157,0 -2.425356,1.25731 -4.702676,2.79404 -3.990351,2.69266 -4.100255,2.82225 -3.029494,3.57225 1.071112,0.75024 1.111083,1.20725 1.111083,12.7028 v 11.92456 h -7.754797 -7.754822 l 0.197657,-9.69658 c 0.188521,-9.24887 0.262259,-9.82024 1.597085,-12.37452 1.474279,-2.82115 4.654803,-6.06328 8.341398,-8.50296 1.213949,-0.80334 2.132351,-1.53543 2.040912,-1.62687 -0.09147,-0.0915 -1.555372,0.1965 -3.253193,0.63986 -9.233529,2.41121 -15.448748,7.41708 -17.689269,14.2473 -0.709237,2.1621 -0.951857,5.83661 -1.213357,18.37641 -0.29686,14.23516 -0.42922,15.92848 -1.44194,18.447 -1.58192,3.93401 -4.48145,7.66017 -8.29766,10.66324 -4.72785,3.72044 -5.10034,3.83214 -2.9518,0.88508 2.63089,-3.60866 4.45836,-7.38288 5.53783,-11.43707 0.71947,-2.7022 0.98098,-6.85603 1.25198,-19.88655 l 0.34254,-16.47091 1.48302,-3.24657 c 1.61514,-3.53581 4.710351,-6.85368 9.37427,-10.04863 1.882255,-1.28941 2.449534,-1.882 1.593962,-1.66508 -8.538992,2.16497 -9.100022,2.1903 -15.117132,0.68256 -10.77579,-2.70016 -14.48613,-2.38695 -18.89356,1.59489 -1.87005,1.68948 -5.20437,7.91499 -4.57582,8.54354 0.1627,0.16269 1.16723,-0.46931 2.2323,-1.40445 3.42839,-3.01017 4.21629,-3.08201 10.78927,-0.98383 2.53201,0.80825 4.24801,1.01405 6.76833,0.81175 l 3.37633,-0.27103 -3.19327,3.70101 c -4.06124,4.70699 -5.18296,6.94062 -5.97016,11.88825 -0.57493,3.61348 -0.76007,4.01303 -1.97253,4.25683 -5.61819,1.12967 -8.80658,3.1458 -10.55132,6.67191 -1.19048,2.40593 -0.90165,3.05581 0.92389,2.0788 0.58718,-0.31424 2.45341,-0.70334 4.14718,-0.86467 3.71014,-0.35338 6.1538,0.69898 7.98369,3.43815 1.43598,2.14953 1.68476,5.89877 0.39142,5.89877 -0.44806,0 -2.01079,0.60613 -3.47274,1.34696 -3.2321,1.63784 -4.74036,3.89999 -4.74307,7.11394 l -0.002,2.35073 1.25324,-1.17736 c 1.71795,-1.61394 4.62038,-2.36043 6.45924,-1.6613 1.36496,0.51896 1.4377,0.70979 1.20271,3.15543 -0.29736,3.09462 -2.10088,6.10353 -7.04297,11.75018 -1.90291,2.17418 -4.05899,5.1357 -4.79131,6.58116 -1.43946,2.84126 -1.76456,6.5557 -0.66959,7.65067 1.03137,1.03137 4.19961,0.5446 4.65378,-0.71501 z m 52.066866,-61.68399 v -10.94296 l 2.523764,1.8687 2.523774,1.86869 0.145376,9.07427 0.145377,9.07426 h -2.669151 -2.66914 z"
       id="path75"
       inkscape:connector-curvature="0" />
  </g>
</svg>
